a = 1;
r = 0.25;

h  = 0.03;
h1 = 0.1*h;
h2 = 0.4*h;

// -------------------
// corner points 
// -------------------

Point(1) = {0,0,0,h};
Point(2) = {a,0,0,h};
Point(3) = {a,a,0,h};
Point(4) = {0.,a,0,h};

// -------------------
// inner circle's points
// -------------------

Point(5) = {0.5*a,0.5*a,0,0.06};
Point(6) = {0.5*a+r,0.5*a,0,h2};
Point(7) = {0.5*a,0.5*a+r,0,h2};
Point(8) = {0.5*a-r,0.5*a,0,h2};
Point(9) = {0.5*a,0.5*a-r,0,h2};


// -------------------
// outer lines
// -------------------

Line(1) = {1,2};
Line(2) = {2,3};
Line(3) = {3,4};
Line(4) = {4,1};

Circle(5) = {6,5,7};
Circle(6) = {7,5,8};
Circle(7) = {8,5,9};
Circle(8) = {9,5,6};


Line Loop(100) = {1,2,3,4};
Line Loop(200) = {5,6,7,8};

// -------------------
//  Surfaces
// -------------------

Plane Surface(100) = {100,200}; // matrix
Plane Surface(200) = {200};     // aggregate


Field[1] = Attractor;
Field[1].NodesList={5}; // node 5, center of the circle is attractor
Field[2] = Threshold;
Field[2].IField=1;
Field[2].LcMin=h2;
Field[2].LcMax=5*h2;
Field[2].DistMin=0.3;
Field[2].DistMax=0.1;

Background Field = 2;

Mesh.CharacteristicLengthExtendFromBoundary = 0;

// ----------------------
// Physcial quantities
// ----------------------

Physical Surface(1) = {100};
Physical Surface(2) = {200};

// lower, right, upper, left edges
// opposite edges = same direction

Physical Line(1) = {1};
Physical Line(2) = {2};
Physical Line(3) = {3};
Physical Line(4) = {4};

// four corner nodes
// left bottom, anti-clockwise

//Physical Point(10) = {36};
//Physical Point(20) = {54};
//Physical Point(30) = {4};
//Physical Point(40) = {18};


